VeloTrackChecker                       INFO Results
VeloTrackChecker                       INFO **** Velo                                     182382 tracks including           1595 ghosts [ 0.87 %], Event average  0.74 % ****
VeloTrackChecker                       INFO   01_velo                                  :   77971 from    79304 [ 98.32 %]   1040 clones [ 1.32 %], purity: 99.77 %, hitEff: 97.06 %, hitEffFirst3: 97.13 %, hitEffLast: 96.71 %
VeloTrackChecker                       INFO   02_long                                  :   46431 from    46756 [ 99.30 %]    385 clones [ 0.82 %], purity: 99.84 %, hitEff: 97.93 %, hitEffFirst3: 97.97 %, hitEffLast: 97.76 %
VeloTrackChecker                       INFO   03_long_P>5GeV                           :   31838 from    31974 [ 99.57 %]    187 clones [ 0.58 %], purity: 99.87 %, hitEff: 98.37 %, hitEffFirst3: 98.41 %, hitEffLast: 98.25 %
VeloTrackChecker                       INFO   04_long_strange                          :    2524 from     2582 [ 97.75 %]     19 clones [ 0.75 %], purity: 99.56 %, hitEff: 97.65 %, hitEffFirst3: 97.46 %, hitEffLast: 97.27 %
VeloTrackChecker                       INFO   05_long_strange_P>5GeV                   :    1200 from     1222 [ 98.20 %]      3 clones [ 0.25 %], purity: 99.61 %, hitEff: 98.41 %, hitEffFirst3: 98.17 %, hitEffLast: 98.02 %
VeloTrackChecker                       INFO   06_long_fromB                            :      77 from       77 [100.00 %]      1 clones [ 1.28 %], purity: 99.25 %, hitEff: 97.78 %, hitEffFirst3: 97.86 %, hitEffLast: 98.00 %
VeloTrackChecker                       INFO   06_long_fromD                            :     628 from      630 [ 99.68 %]      3 clones [ 0.48 %], purity: 99.87 %, hitEff: 98.17 %, hitEffFirst3: 98.36 %, hitEffLast: 98.00 %
VeloTrackChecker                       INFO   07_long_fromB_P>5GeV                     :      57 from       57 [100.00 %]      1 clones [ 1.72 %], purity: 99.57 %, hitEff: 98.16 %, hitEffFirst3: 98.28 %, hitEffLast: 98.13 %
VeloTrackChecker                       INFO   07_long_fromD_P>5GeV                     :     424 from      425 [ 99.76 %]      0 clones [ 0.00 %], purity: 99.88 %, hitEff: 98.70 %, hitEffFirst3: 98.82 %, hitEffLast: 98.53 %
VeloTrackChecker                       INFO   08_long_electrons                        :    3941 from     4114 [ 95.79 %]     55 clones [ 1.38 %], purity: 98.25 %, hitEff: 94.09 %, hitEffFirst3: 90.82 %, hitEffLast: 95.15 %
VeloTrackChecker                       INFO   09_long_fromB_electrons                  :       4 from        4 [100.00 %]      0 clones [ 0.00 %], purity:100.00 %, hitEff: 90.62 %, hitEffFirst3: 83.33 %, hitEffLast:100.00 %
VeloTrackChecker                       INFO   10_long_fromB_electrons_P>5GeV           :       3 from        3 [100.00 %]      0 clones [ 0.00 %], purity:100.00 %, hitEff: 87.50 %, hitEffFirst3: 77.78 %, hitEffLast:100.00 %
VeloTrackChecker                       INFO   11_long_fromB_P>3GeV_Pt>0.5GeV           :      45 from       45 [100.00 %]      1 clones [ 2.17 %], purity: 99.09 %, hitEff: 97.83 %, hitEffFirst3: 97.83 %, hitEffLast: 97.83 %
VeloTrackChecker                       INFO   11_long_fromB_electrons_P>3GeV_Pt>0.5GeV :       1 from        1 [100.00 %]      0 clones [ 0.00 %], purity:100.00 %, hitEff: 87.50 %, hitEffFirst3: 66.67 %, hitEffLast:100.00 %
VeloTrackChecker                       INFO   11_long_fromD_P>3GeV_Pt>0.5GeV           :     336 from      336 [100.00 %]      0 clones [ 0.00 %], purity: 99.85 %, hitEff: 98.43 %, hitEffFirst3: 98.61 %, hitEffLast: 98.25 %
VeloTrackChecker                       INFO   11_long_strange_P>3GeV_Pt>0.5GeV         :     581 from      597 [ 97.32 %]      0 clones [ 0.00 %], purity: 99.31 %, hitEff: 98.42 %, hitEffFirst3: 97.82 %, hitEffLast: 98.57 %
VeloTrackChecker                       INFO   12_UT_long_fromB_P>3GeV_Pt>0.5GeV        :      45 from       45 [100.00 %]      1 clones [ 2.17 %], purity: 99.09 %, hitEff: 97.83 %, hitEffFirst3: 97.83 %, hitEffLast: 97.83 %
VeloTrackChecker                       INFO
ForwardTrackChecker                    INFO Results
ForwardTrackChecker                    INFO **** Forward                                   23934 tracks including            594 ghosts [ 2.48 %], Event average  1.85 % ****
ForwardTrackChecker                    INFO   01_long                                  :   22046 from    46756 [ 47.15 %]     64 clones [ 0.29 %], purity: 99.07 %, hitEff: 95.31 %
ForwardTrackChecker                    INFO   02_long_P>5GeV                           :   19318 from    31974 [ 60.42 %]     59 clones [ 0.30 %], purity: 99.17 %, hitEff: 95.51 %
ForwardTrackChecker                    INFO   03_long_strange                          :     574 from     2582 [ 22.23 %]      0 clones [ 0.00 %], purity: 99.02 %, hitEff: 96.04 %
ForwardTrackChecker                    INFO   04_long_strange_P>5GeV                   :     458 from     1222 [ 37.48 %]      0 clones [ 0.00 %], purity: 99.21 %, hitEff: 96.15 %
ForwardTrackChecker                    INFO   05_long_fromB                            :      40 from       77 [ 51.95 %]      1 clones [ 2.44 %], purity: 99.19 %, hitEff: 95.54 %
ForwardTrackChecker                    INFO   05_long_fromD                            :     313 from      630 [ 49.68 %]      0 clones [ 0.00 %], purity: 99.22 %, hitEff: 95.56 %
ForwardTrackChecker                    INFO   06_long_fromB_P>5GeV                     :      38 from       57 [ 66.67 %]      1 clones [ 2.56 %], purity: 99.35 %, hitEff: 95.74 %
ForwardTrackChecker                    INFO   06_long_fromD_P>5GeV                     :     270 from      425 [ 63.53 %]      0 clones [ 0.00 %], purity: 99.29 %, hitEff: 95.97 %
ForwardTrackChecker                    INFO   07_long_electrons                        :     364 from     4114 [  8.85 %]      5 clones [ 1.36 %], purity: 98.30 %, hitEff: 94.11 %
ForwardTrackChecker                    INFO   08_long_fromB_electrons                  :       1 from        4 [ 25.00 %]      0 clones [ 0.00 %], purity:100.00 %, hitEff:100.00 %
ForwardTrackChecker                    INFO   09_long_fromB_electrons_P>5GeV           :       1 from        3 [ 33.33 %]      0 clones [ 0.00 %], purity:100.00 %, hitEff:100.00 %
ForwardTrackChecker                    INFO   10_long_fromB_P>3GeV_Pt>0.5GeV           :      38 from       45 [ 84.44 %]      1 clones [ 2.56 %], purity: 99.14 %, hitEff: 95.95 %
ForwardTrackChecker                    INFO   10_long_fromB_electrons_P>3GeV_Pt>0.5GeV :       1 from        1 [100.00 %]      0 clones [ 0.00 %], purity:100.00 %, hitEff:100.00 %
ForwardTrackChecker                    INFO   10_long_fromD_P>3GeV_Pt>0.5GeV           :     297 from      336 [ 88.39 %]      0 clones [ 0.00 %], purity: 99.22 %, hitEff: 95.55 %
ForwardTrackChecker                    INFO   10_long_strange_P>3GeV_Pt>0.5GeV         :     511 from      597 [ 85.59 %]      0 clones [ 0.00 %], purity: 98.99 %, hitEff: 95.90 %
ForwardTrackChecker                    INFO   11_UT_long_fromB_P>3GeV_Pt>0.5GeV        :      38 from       45 [ 84.44 %]      1 clones [ 2.56 %], purity: 99.14 %, hitEff: 95.95 %
ForwardTrackChecker                    INFO
ForwardUTHitsChecker                   INFO Results
ForwardUTHitsChecker                   INFO **** UT Efficiency for /Event/LHCb__Converters__Track__v1__fromV2TrackV1Track#2/OutputTracksName ****     594 ghost,  4.07 UT per track
ForwardUTHitsChecker                   INFO                                  01_long : 22110 tr  4.09 from  4.12 mcUT [ 99.4 %]  0.04 ghost hits on real tracks [ 0.9 %]
ForwardUTHitsChecker                   INFO                             01_long >3UT : 22102 tr  4.09 from  4.12 mcUT [ 99.4 %]  0.04 ghost hits on real tracks [ 0.9 %]
ForwardUTHitsChecker                   INFO                           02_long_P>5GeV : 19377 tr  4.10 from  4.12 mcUT [ 99.5 %]  0.04 ghost hits on real tracks [ 0.9 %]
ForwardUTHitsChecker                   INFO                      02_long_P>5GeV >3UT : 19369 tr  4.10 from  4.12 mcUT [ 99.5 %]  0.04 ghost hits on real tracks [ 0.9 %]
ForwardUTHitsChecker                   INFO           03_long_fromB_P>3GeV_Pt>0.5GeV :    39 tr  4.03 from  4.03 mcUT [100.0 %]  0.03 ghost hits on real tracks [ 0.6 %]
ForwardUTHitsChecker                   INFO      03_long_fromB_P>3GeV_Pt>0.5GeV >3UT :    39 tr  4.03 from  4.03 mcUT [100.0 %]  0.03 ghost hits on real tracks [ 0.6 %]
ForwardUTHitsChecker                   INFO        04_UT_long_fromB_P>3GeV_Pt>0.5GeV :    39 tr  4.03 from  4.03 mcUT [100.0 %]  0.03 ghost hits on real tracks [ 0.6 %]
ForwardUTHitsChecker                   INFO   04_UT_long_fromB_P>3GeV_Pt>0.5GeV >3UT :    39 tr  4.03 from  4.03 mcUT [100.0 %]  0.03 ghost hits on real tracks [ 0.6 %]
ForwardUTHitsChecker                   INFO
UpstreamTrackChecker                   INFO Results
UpstreamTrackChecker                   INFO **** Upstream                                  35195 tracks including           1411 ghosts [ 4.01 %], Event average  3.32 % ****
UpstreamTrackChecker                   INFO   01_velo                                  :   31964 from    79304 [ 40.31 %]     89 clones [ 0.28 %], purity: 99.59 %, hitEff: 99.12 %
UpstreamTrackChecker                   INFO   02_velo+UT                               :   31916 from    69122 [ 46.17 %]     89 clones [ 0.28 %], purity: 99.60 %, hitEff: 99.12 %
UpstreamTrackChecker                   INFO   03_velo+UT_P>5GeV                        :   25971 from    38520 [ 67.42 %]     71 clones [ 0.27 %], purity: 99.64 %, hitEff: 99.50 %
UpstreamTrackChecker                   INFO   04_velo+notLong                          :    5484 from    32548 [ 16.85 %]     10 clones [ 0.18 %], purity: 99.36 %, hitEff: 98.48 %
UpstreamTrackChecker                   INFO   05_velo+UT+notLong                       :    5440 from    22818 [ 23.84 %]     10 clones [ 0.18 %], purity: 99.43 %, hitEff: 98.47 %
UpstreamTrackChecker                   INFO   06_velo+UT+notLong_P>5GeV                :    3735 from     6918 [ 53.99 %]      5 clones [ 0.13 %], purity: 99.57 %, hitEff: 99.54 %
UpstreamTrackChecker                   INFO   07_long                                  :   26480 from    46756 [ 56.63 %]     79 clones [ 0.30 %], purity: 99.63 %, hitEff: 99.26 %
UpstreamTrackChecker                   INFO   07_long_strange                          :     780 from     2582 [ 30.21 %]      1 clones [ 0.13 %], purity: 99.16 %, hitEff: 98.95 %
UpstreamTrackChecker                   INFO   08_long_P>5GeV                           :   22239 from    31974 [ 69.55 %]     66 clones [ 0.30 %], purity: 99.66 %, hitEff: 99.50 %
UpstreamTrackChecker                   INFO   08_long_strange_P>5GeV                   :     570 from     1222 [ 46.64 %]      1 clones [ 0.18 %], purity: 99.20 %, hitEff: 99.29 %
UpstreamTrackChecker                   INFO   09_long_fromB                            :      45 from       77 [ 58.44 %]      1 clones [ 2.17 %], purity: 99.61 %, hitEff: 99.57 %
UpstreamTrackChecker                   INFO   09_long_fromD                            :     368 from      630 [ 58.41 %]      0 clones [ 0.00 %], purity: 99.61 %, hitEff: 99.34 %
UpstreamTrackChecker                   INFO   10_long_fromB_P>5GeV                     :      42 from       57 [ 73.68 %]      1 clones [ 2.33 %], purity: 99.59 %, hitEff:100.00 %
UpstreamTrackChecker                   INFO   10_long_fromD_P>5GeV                     :     306 from      425 [ 72.00 %]      0 clones [ 0.00 %], purity: 99.65 %, hitEff: 99.38 %
UpstreamTrackChecker                   INFO   11_long_electrons                        :     608 from     4114 [ 14.78 %]      6 clones [ 0.98 %], purity: 98.75 %, hitEff: 98.46 %
UpstreamTrackChecker                   INFO   12_long_fromB_electrons                  :       1 from        4 [ 25.00 %]      0 clones [ 0.00 %], purity:100.00 %, hitEff:100.00 %
UpstreamTrackChecker                   INFO   13_long_fromB_electrons_P>5GeV           :       1 from        3 [ 33.33 %]      0 clones [ 0.00 %], purity:100.00 %, hitEff:100.00 %
UpstreamTrackChecker                   INFO   14_long_fromB_P>3GeV_Pt>0.5GeV           :      41 from       45 [ 91.11 %]      1 clones [ 2.38 %], purity: 99.58 %, hitEff:100.00 %
UpstreamTrackChecker                   INFO   14_long_fromB_electrons_P>3GeV_Pt>0.5GeV :       1 from        1 [100.00 %]      0 clones [ 0.00 %], purity:100.00 %, hitEff:100.00 %
UpstreamTrackChecker                   INFO   14_long_fromD_P>3GeV_Pt>0.5GeV           :     321 from      336 [ 95.54 %]      0 clones [ 0.00 %], purity: 99.63 %, hitEff: 99.24 %
UpstreamTrackChecker                   INFO   14_long_strange_P>3GeV_Pt>0.5GeV         :     548 from      597 [ 91.79 %]      0 clones [ 0.00 %], purity: 99.32 %, hitEff: 99.39 %
UpstreamTrackChecker                   INFO   15_UT_long_fromB_P>3GeV_Pt>0.5GeV        :      41 from       45 [ 91.11 %]      1 clones [ 2.38 %], purity: 99.58 %, hitEff:100.00 %
UpstreamTrackChecker                   INFO
TransportSvc                        SUCCESS  GEOMETRY ERRORS: 'Skip'     map has the size 0
TransportSvc                        SUCCESS  GEOMETRY ERRORS: 'Recover'  map has the size 0
TransportSvc                        SUCCESS  GEOMETRY ERRORS: 'Codes'    map has the size 0
TransportSvc                           INFO Reset the static pointer to DetDesc::IGeometyrErrorSvc
ToolSvc                                INFO Removing all tools created by ToolSvc
ApplicationMgr                         INFO Application Manager Finalized successfully
ApplicationMgr                         INFO Application Manager Terminated successfully
PrGECFilter                         SUCCESS Number of counters : 2
 |    Counter                                      |     #     |    sum     | mean/eff^* | rms/err^*  |     min     |     max     |
 | "Nb Events Processed"                           |      1000 |
 | "Nb events removed"                             |        43 |
VeloClusterTrackingSIMD                INFO Number of counters : 2
 |    Counter                                      |
 | "Nb of Produced Clusters"                       |       957 |    1412866 |     1476.3 |
 | "Nb of Produced Tracks"                         |       957 |     182382 |     190.58 |
TrackBeamLineVertexFinderSoA           INFO Number of counters : 1
 |    Counter                                      |
 | "Nb PVs"                                        |       957 |       4632 |     4.8401 |
PrStorePrUTHits                        INFO Number of counters : 1
 |    Counter                                      |
 | "#banks"                                        |       957 |     172260 |     180.00 |
PrVeloUT                               INFO Number of counters : 2
 |    Counter                                      |
 | "#seeds"                                        |       957 |     113825 |     118.94 |
 | "#tracks"                                       |       957 |      35195 |     36.776 |
SciFiTrackForwarding                   INFO Number of counters : 2
 |    Counter                                      |
 | "2nd Loop"                                      |     14319 |
 | "Created long tracks"                           |       957 |      23934 |     25.009 |
VeloKalman                          SUCCESS Number of counters : 1
 |    Counter                                      |     #     |    sum     | mean/eff^* | rms/err^*  |     min     |     max     |
 | "Nb of Produced Tracks"                         |       957 |      23934 |     25.009 |
MuonIDHlt1AlgPr                        INFO Number of counters : 5
 |    Counter                                      |
 | "nGoodOffline"                                  |     23934 |
 | "nInAcceptance"                                 |     21655 |
 | "nIsMuon"                                       |      1959 |
 | "nIsMuonTight"                                  |       727 |
 | "nMomentumCut"                                  |     23579 |
TracksVPMergerConverter             SUCCESS Number of counters : 1
 |    Counter                                      |     #     |    sum     | mean/eff^* | rms/err^*  |     min     |     max     |
 | "Nb of Produced Tracks"                         |       957 |     182382 |     190.58 |
PrStoreUTHit                           INFO Number of counters : 1
 |    Counter                                      |
 | "#banks"                                        |       957 |     172260 |     180.00 |
PrLHCbID2MCParticle                 SUCCESS Number of counters : 1
 |    Counter                                      |     #     |    sum     | mean/eff^* | rms/err^*  |     min     |     max     |
 | "#removed null MCParticles"                     |   5777818 |          0 |     0.0000 |
PrTrackAssociator                   SUCCESS Number of counters : 2
 |    Counter                                      |     #     |    sum     | mean/eff^* | rms/err^*  |     min     |     max     |
 |*"Efficiency"                                    |    182382 |     180787 |( 99.12546 +- 0.02180173)% |
 | "MC particles per track"                        |    180787 |     181837 |     1.0058 |
TracksUTConverter                   SUCCESS Number of counters : 1
 |    Counter                                      |     #     |    sum     | mean/eff^* | rms/err^*  |     min     |     max     |
 | "Nb of Produced Tracks"                         |       957 |      35195 |     36.776 |
TracksFTConverter                   SUCCESS Number of counters : 1
 |    Counter                                      |     #     |    sum     | mean/eff^* | rms/err^*  |     min     |     max     |
 | "Nb of Produced Tracks"                         |       957 |      23934 |     25.009 |
PrTrackAssociator#1                 SUCCESS Number of counters : 2
 |    Counter                                      |     #     |    sum     | mean/eff^* | rms/err^*  |     min     |     max     |
 |*"Efficiency"                                    |     23934 |      23340 |( 97.51817 +- 0.1005589)% |
 | "MC particles per track"                        |     23340 |      27472 |     1.1770 |
PrTrackAssociator#2                 SUCCESS Number of counters : 2
 |    Counter                                      |     #     |    sum     | mean/eff^* | rms/err^*  |     min     |     max     |
 |*"Efficiency"                                    |     35195 |      33784 |( 95.99091 +- 0.1045677)% |
 | "MC particles per track"                        |     33784 |      33785 |     1.0000 |
UpstreamTrackChecker.LoKi::Hybri... SUCCESS Number of counters : 1
 |    Counter                                      |     #     |    sum     | mean/eff^* | rms/err^*  |     min     |     max     |
 | "# loaded from PYTHON"                          |        22 |         22 |     1.0000 |     0.0000 |      1.0000 |      1.0000 |
ForwardUTHitsChecker.LoKi::Hybri... SUCCESS Number of counters : 1
 |    Counter                                      |     #     |    sum     | mean/eff^* | rms/err^*  |     min     |     max     |
 | "# loaded from PYTHON"                          |         4 |          4 |     1.0000 |     0.0000 |      1.0000 |      1.0000 |
ForwardTrackChecker.LoKi::Hybrid... SUCCESS Number of counters : 1
 |    Counter                                      |     #     |    sum     | mean/eff^* | rms/err^*  |     min     |     max     |
 | "# loaded from PYTHON"                          |        16 |         16 |     1.0000 |     0.0000 |      1.0000 |      1.0000 |
VeloTrackChecker.LoKi::Hybrid::M... SUCCESS Number of counters : 1
 |    Counter                                      |     #     |    sum     | mean/eff^* | rms/err^*  |     min     |     max     |
 | "# loaded from PYTHON"                          |        17 |         17 |     1.0000 |     0.0000 |      1.0000 |      1.0000 |
ToolSvc.TrackRungeKuttaExtrapolator SUCCESS Number of counters : 1
 |    Counter                                      |     #     |    sum     | mean/eff^* | rms/err^*  |     min     |     max     |
 | "Number of field calls"                         |      6176 |
UpstreamTrackChecker.PrCheckerHi... SUCCESS Booked 310 Histogram(s) : 1D=305 2D=5 
ForwardUTHitsChecker.PrCheckerHi... SUCCESS Booked 44 Histogram(s) : 1D=40 2D=4 
ForwardTrackChecker.PrCheckerHistos SUCCESS Booked 232 Histogram(s) : 1D=227 2D=5 
VeloTrackChecker.PrCheckerHistos    SUCCESS Booked 235 Histogram(s) : 1D=234 2D=1 
