FutureCellularAutomatonAlg             INFO Built <152.354> cellular automaton clusters/event  with <3.41667> iterations (min,max)=(0,6) on average
TransportSvc                        SUCCESS  GEOMETRY ERRORS: 'Skip'     map has the size 0
TransportSvc                        SUCCESS  GEOMETRY ERRORS: 'Recover'  map has the size 0
TransportSvc                        SUCCESS  GEOMETRY ERRORS: 'Codes'    map has the size 0
TransportSvc                           INFO Reset the static pointer to DetDesc::IGeometyrErrorSvc
ToolSvc                                INFO Removing all tools created by ToolSvc
ApplicationMgr                         INFO Application Manager Finalized successfully
ApplicationMgr                         INFO Application Manager Terminated successfully
LHCb__MDF__IOAlg                       INFO Number of counters : 1
 |    Counter                                      |
 | "#banks in raw event"                           |       100 |     102500 |     1025.0 |     0.0000 |        1025 |        1025 |
PrGECFilter                         SUCCESS Number of counters : 2
 |    Counter                                      |     #     |    sum     | mean/eff^* | rms/err^*  |     min     |     max     |
 | "Nb Events Processed"                           |       100 |
 | "Nb events removed"                             |         4 |
VeloClusterTrackingSIMD                INFO Number of counters : 2
 |    Counter                                      |
 | "Nb of Produced Clusters"                       |        96 |     163746 |     1705.7 |
 | "Nb of Produced Tracks"                         |        96 |      21042 |     219.19 |
TracksVPMergerConverter             SUCCESS Number of counters : 1
 |    Counter                                      |     #     |    sum     | mean/eff^* | rms/err^*  |     min     |     max     |
 | "Nb of Produced Tracks"                         |        96 |      21042 |     219.19 |
PrStorePrUTHits                        INFO Number of counters : 1
 |    Counter                                      |
 | "#banks"                                        |        96 |      17280 |     180.00 |
PrVeloUT                               INFO Number of counters : 2
 |    Counter                                      |
 | "#seeds"                                        |        96 |      13000 |     135.42 |
 | "#tracks"                                       |        96 |       3469 |     36.135 |
SciFiTrackForwarding                   INFO Number of counters : 2
 |    Counter                                      |
 | "2nd Loop"                                      |      1647 |
 | "Created long tracks"                           |        96 |       2134 |     22.229 |
VeloKalman                          SUCCESS Number of counters : 1
 |    Counter                                      |     #     |    sum     | mean/eff^* | rms/err^*  |     min     |     max     |
 | "Nb of Produced Tracks"                         |        96 |       2134 |     22.229 |
TracksUTConverter                   SUCCESS Number of counters : 1
 |    Counter                                      |     #     |    sum     | mean/eff^* | rms/err^*  |     min     |     max     |
 | "Nb of Produced Tracks"                         |        96 |       3469 |     36.135 |
TracksFTConverter                   SUCCESS Number of counters : 1
 |    Counter                                      |     #     |    sum     | mean/eff^* | rms/err^*  |     min     |     max     |
 | "Nb of Produced Tracks"                         |        96 |       2134 |     22.229 |
TracksFitConverter                  SUCCESS Number of counters : 1
 |    Counter                                      |     #     |    sum     | mean/eff^* | rms/err^*  |     min     |     max     |
 | "Nb of Produced Tracks"                         |        96 |       2134 |     22.229 |
LHCb__Converters__Track__PrSeedi... SUCCESS Number of counters : 1
 |    Counter                                      |     #     |    sum     | mean/eff^* | rms/err^*  |     min     |     max     |
 | "Nb of converted Tracks"                        |      9079 |       9079 |     1.0000 |
PrMatchNN                           SUCCESS Number of counters : 3
 |    Counter                                      |     #     |    sum     | mean/eff^* | rms/err^*  |     min     |     max     |
 | "#MatchingChi2"                                 |     16510 |   89353.54 |     5.4121 |
 | "#MatchingTracks"                               |        95 |       6021 |     63.379 |
 | "TracksMLP"                                     |     16510 |   5873.367 |    0.35575 |
TracksMatchConverter                SUCCESS Number of counters : 1
 |    Counter                                      |     #     |    sum     | mean/eff^* | rms/err^*  |     min     |     max     |
 | "Nb of Produced Tracks"                         |        96 |       6021 |     62.719 |
PrForwardTrackingVelo                  INFO Number of counters : 1
 |    Counter                                      |
 | "Nb output tracks"                              |        95 |       6048 |     63.663 |
TracksFTConverter#1                 SUCCESS Number of counters : 1
 |    Counter                                      |     #     |    sum     | mean/eff^* | rms/err^*  |     min     |     max     |
 | "Nb of Produced Tracks"                         |        96 |       6048 |     63.000 |
PrStoreUTHit                           INFO Number of counters : 1
 |    Counter                                      |
 | "#banks"                                        |        96 |      17280 |     180.00 |
PrLongLivedTracking                    INFO Number of counters : 2
 |    Counter                                      |
 | "# Downstream tracks made"                      |      6798 |
 | "#UT hits added"                                |     26956 |
VPClus                                 INFO Number of counters : 1
 |    Counter                                      |
 | "Nb of Produced Clusters"                       |        96 |     163746 |     1705.7 |
TrackBestTrackCreator               SUCCESS Number of counters : 32
 |    Counter                                      |     #     |    sum     | mean/eff^* | rms/err^*  |     min     |     max     |
 |*"BadInput"                                      |     28052 |          0 |( 0.000000 +- 0.000000)% |
 |*"Downstream.badChisq"                           |      2280 |       1158 |( 50.78947 +- 1.047004)% |
 | "Downstream.chisqProbSum"                       |      2280 |   350.1713 |    0.15358 |
 |*"Downstream.flipCharge"                         |      2280 |          0 |( 0.000000 +- 0.000000)% |
 | "Downstream.ghostProbability"                   |      2280 |   1193.383 |    0.52341 |
 | "Downstream.numOutliers"                        |      2280 |       2521 |     1.1057 |
 |*"FitFailed"                                     |     28052 |          0 |( 0.000000 +- 0.000000)% |
 |*"Long.badChisq"                                 |      7534 |       2542 |( 33.74038 +- 0.5447367)% |
 | "Long.chisqProbSum"                             |      7534 |    1881.99 |    0.24980 |
 |*"Long.flipCharge"                               |      7534 |          0 |( 0.000000 +- 0.000000)% |
 | "Long.ghostProbability"                         |      7534 |   1200.382 |    0.15933 |
 | "Long.numOutliers"                              |      7534 |       6721 |    0.89209 |
 |*"Ttrack.badChisq"                               |      2698 |         60 |( 2.223870 +- 0.2838900)% |
 | "Ttrack.chisqProbSum"                           |      2698 |   1072.685 |    0.39759 |
 |*"Ttrack.flipCharge"                             |      2698 |         41 |( 1.519644 +- 0.2355184)% |
 | "Ttrack.ghostProbability"                       |      2698 |   126.7949 |   0.046996 |
 | "Ttrack.numOutliers"                            |      2698 |        959 |    0.35545 |
 |*"Upstream.badChisq"                             |       889 |        205 |( 23.05962 +- 1.412708)% |
 | "Upstream.chisqProbSum"                         |       889 |   285.0658 |    0.32066 |
 |*"Upstream.flipCharge"                           |       889 |         19 |( 2.137233 +- 0.4850470)% |
 | "Upstream.ghostProbability"                     |       889 |   195.7407 |    0.22018 |
 | "Upstream.numOutliers"                          |       889 |        419 |    0.47132 |
 |*"Velo.badChisq"                                 |      6616 |       1698 |( 25.66505 +- 0.5369945)% |
 | "Velo.chisqProbSum"                             |      6616 |   1961.867 |    0.29653 |
 |*"Velo.flipCharge"                               |      6616 |          0 |( 0.000000 +- 0.000000)% |
 | "Velo.ghostProbability"                         |      6616 |   691.4084 |    0.10451 |
 | "Velo.numOutliers"                              |      6616 |       4623 |    0.69876 |
 |*"VeloBackward.badChisq"                         |      8035 |        502 |( 6.247666 +- 0.2699958)% |
 | "VeloBackward.chisqProbSum"                     |      8035 |   3585.989 |    0.44630 |
 |*"VeloBackward.flipCharge"                       |      8035 |          0 |( 0.000000 +- 0.000000)% |
 | "VeloBackward.ghostProbability"                 |      8035 |   646.3848 |   0.080446 |
 | "VeloBackward.numOutliers"                      |      8035 |       2233 |    0.27791 |
TrackBeamLineVertexFinderSoA           INFO Number of counters : 1
 |    Counter                                      |
 | "Nb PVs"                                        |        96 |        448 |     4.6667 |
FutureEcalZSup                         INFO Number of counters : 1
 |    Counter                                      |
 |*"No bank found"                                 |        96 |          0 |( 0.000000 +- 0.000000)% |
FutureCellularAutomatonAlg             INFO Number of counters : 4
 |    Counter                                      |
 | "# clusterization passes"                       |        96 |        328 |     3.4167 |    0.79931 |      0.0000 |      6.0000 |
 | "# clusters"                                    |        96 |      14626 |     152.35 |     73.922 |      0.0000 |      318.00 |
 | "Cluster energy"                                |     14626 |7.121746e+07 |     4869.2 |     6400.1 |      128.00 |  1.1381e+05 |
 | "Cluster size"                                  |     14626 |     177521 |     12.137 |     3.5542 |      4.0000 |      37.000 |
CaloFutureClusterCovarianceAlg      SUCCESS Number of counters : 1
 |    Counter                                      |     #     |    sum     | mean/eff^* | rms/err^*  |     min     |     max     |
 | "# clusters"                                    |        96 |
CaloFutureMergedPi0                    INFO Number of counters : 14
 |    Counter                                      |
 | "Corrected energy"                              |       652 |    6436594 |     9872.1 |     10796. |      195.60 |      81343. |
 |*"Fails to set covariance (1)"                   |       326 |          0 |( 0.000000 +- 0.000000)% |
 |*"Fails to set covariance (2)"                   |       326 |          0 |( 0.000000 +- 0.000000)% |
 |*"Fails to set spread (1)"                       |       326 |          0 |( 0.000000 +- 0.000000)% |
 |*"Fails to set spread (2)"                       |       326 |          0 |( 0.000000 +- 0.000000)% |
 |*"Fails to tag(E) cluster (1)"                   |       326 |          0 |( 0.000000 +- 0.000000)% |
 |*"Fails to tag(E) cluster (2)"                   |       326 |          0 |( 0.000000 +- 0.000000)% |
 | "Photon Delta(E)"                               |       652 |  -31739.31 |    -48.680 |     344.13 |     -2624.1 |      2374.0 |
 | "Photon Delta(X)"                               |       652 |  -556.2064 |   -0.85308 |     13.946 |     -41.593 |      22.930 |
 | "Photon Delta(Y)"                               |       652 |  -348.4747 |   -0.53447 |     13.814 |     -29.478 |      22.926 |
 | "Photon Delta(Z)"                               |       652 |   50327.58 |     77.190 |     10.894 |      16.146 |      111.40 |
 | "clusters => mergedPi0s"                        |        96 |        326 |     3.3958 |
 | "clusters => splitClusters"                     |        96 |        652 |     6.7917 |
 | "clusters => splitPhotons"                      |        96 |        652 |     6.7917 |
InEcalFutureAcceptanceAlg           SUCCESS Number of counters : 3
 |    Counter                                      |     #     |    sum     | mean/eff^* | rms/err^*  |     min     |     max     |
 | "#links in table"                               |        96 |       9867 |     102.78 |     58.378 |      0.0000 |      247.00 |
 | "#total tracks"                                 |        96 |      25242 |     262.94 |     144.68 |      0.0000 |      640.00 |
 | "#tracks in acceptance"                         |        96 |       8223 |     85.656 |     48.461 |      0.0000 |      208.00 |
FutureEcalPIDmuAlg                  SUCCESS Number of counters : 1
 |    Counter                                      |     #     |    sum     | mean/eff^* | rms/err^*  |     min     |     max     |
 | "/Event/FutureTrack2EcalEAlg/Output=>/Event/Futu|        96 |       8223 |     85.656 |     48.461 |      0.0000 |      208.00 |
FutureHcalZSup                         INFO Number of counters : 1
 |    Counter                                      |
 |*"No bank found"                                 |        96 |          0 |( 0.000000 +- 0.000000)% |
InHcalFutureAcceptanceAlg           SUCCESS Number of counters : 3
 |    Counter                                      |     #     |    sum     | mean/eff^* | rms/err^*  |     min     |     max     |
 | "#links in table"                               |        96 |       9867 |     102.78 |     58.378 |      0.0000 |      247.00 |
 | "#total tracks"                                 |        96 |      25242 |     262.94 |     144.68 |      0.0000 |      640.00 |
 | "#tracks in acceptance"                         |        96 |       7714 |     80.354 |     45.250 |      0.0000 |      193.00 |
FutureHcalPIDeAlg                   SUCCESS Number of counters : 1
 |    Counter                                      |     #     |    sum     | mean/eff^* | rms/err^*  |     min     |     max     |
 | "/Event/FutureTrack2HcalEAlg/Output=>/Event/Futu|        96 |       7714 |     80.354 |     45.250 |      0.0000 |      193.00 |
FutureHcalPIDmuAlg                  SUCCESS Number of counters : 1
 |    Counter                                      |     #     |    sum     | mean/eff^* | rms/err^*  |     min     |     max     |
 | "/Event/FutureTrack2HcalEAlg/Output=>/Event/Futu|        96 |       7714 |     80.354 |     45.250 |      0.0000 |      193.00 |
FuturePhotonMatchAlg                SUCCESS Number of counters : 5
 |    Counter                                      |     #     |    sum     | mean/eff^* | rms/err^*  |     min     |     max     |
 | "#above threshold"                              |        96 |    1225057 |     12761. |     11337. |      0.0000 |      47098. |
 | "#chi2"                                         |    360543 |1.652361e+08 |     458.30 |     291.65 |  0.00012421 |      1000.0 |
 | "#good tracks"                                  |        96 |       8223 |     85.656 |     48.461 |      0.0000 |      208.00 |
 | "#links in table"                               |        96 |     360543 |     3755.7 |     3738.0 |      0.0000 |      15230. |
 | "#total calos"                                  |        96 |      14626 |     152.35 |     73.922 |      0.0000 |      318.00 |
ClassifyPhotonElectronAlg              INFO Number of counters : 14
 |    Counter                                      |
 | "Electron Delta(E)"                             |      7696 |    1574631 |     204.60 |     203.81 |     -2370.9 |      3316.7 |
 | "Electron Delta(X)"                             |      7696 |   -2146.49 |   -0.27891 |     11.992 |     -23.059 |      22.930 |
 | "Electron Delta(Y)"                             |      7696 |  -631.4859 |  -0.082054 |     11.934 |     -23.059 |      22.930 |
 | "Electron Delta(Z)"                             |      7696 |   506732.5 |     65.844 |     12.421 |      24.016 |      125.30 |
 | "Electron corrected energy"                     |      7696 |4.97599e+07 |     6465.7 |     7155.2 |      398.06 |  1.1680e+05 |
 | "Electrons pT-rejected after correction"        |        96 |
 | "Photon Delta(E)"                               |      9591 |   699440.4 |     72.927 |     136.60 |     -2543.8 |      3184.9 |
 | "Photon Delta(X)"                               |      9591 |   649.8647 |   0.067758 |     12.577 |     -23.059 |      22.930 |
 | "Photon Delta(Y)"                               |      9591 |   1504.709 |    0.15689 |     12.571 |     -23.059 |      22.930 |
 | "Photon Delta(Z)"                               |      9591 |   558906.1 |     58.274 |     11.473 |      24.075 |      111.99 |
 | "Photon corrected energy"                       |      9591 |3.675011e+07 |     3831.7 |     5569.7 |      254.30 |  1.0415e+05 |
 | "Photons pT-rejected after correction"          |        96 |
 | "electronHypos"                                 |        96 |       7696 |     80.167 |     47.332 |      0.0000 |      190.00 |
 | "photonHypos"                                   |        96 |       9591 |     99.906 |     46.926 |      0.0000 |      210.00 |
FutureElectronMatchAlg              SUCCESS Number of counters : 5
 |    Counter                                      |     #     |    sum     | mean/eff^* | rms/err^*  |     min     |     max     |
 | "#above threshold"                              |        96 |     783832 |     8164.9 |     8388.9 |      0.0000 |      34507. |
 | "#chi2"                                         |     92316 |4.007948e+08 |     4341.6 |     2955.0 |    0.013800 |      9999.9 |
 | "#good tracks"                                  |        96 |       8223 |     85.656 |     48.461 |      0.0000 |      208.00 |
 | "#links in table"                               |        96 |      92316 |     961.62 |     886.70 |      0.0000 |      3825.0 |
 | "#total calos"                                  |        96 |       7696 |     80.167 |     47.332 |      0.0000 |      190.00 |
FutureEcalChi22ID                   SUCCESS Number of counters : 2
 |    Counter                                      |     #     |    sum     | mean/eff^* | rms/err^*  |     min     |     max     |
 | "#links in table"                               |        96 |       9867 |     102.78 |     58.378 |      0.0000 |      247.00 |
 | "#total tracks"                                 |        96 |      25242 |     262.94 |     144.68 |      0.0000 |      640.00 |
FutureEcalPIDeAlg                   SUCCESS Number of counters : 1
 |    Counter                                      |     #     |    sum     | mean/eff^* | rms/err^*  |     min     |     max     |
 | "/Event/FutureEcalChi22ID/Output=>/Event/FutureE|        96 |       9867 |     102.78 |     58.378 |      0.0000 |      247.00 |
FutureInBremFutureAcceptanceAlg     SUCCESS Number of counters : 3
 |    Counter                                      |     #     |    sum     | mean/eff^* | rms/err^*  |     min     |     max     |
 | "#links in table"                               |        96 |      13253 |     138.05 |     80.451 |      0.0000 |      319.00 |
 | "#total tracks"                                 |        96 |      25242 |     262.94 |     144.68 |      0.0000 |      640.00 |
 | "#tracks in acceptance"                         |        96 |       8729 |     90.927 |     55.323 |      0.0000 |      220.00 |
BremMatchAlgFuture                  SUCCESS Number of counters : 5
 |    Counter                                      |     #     |    sum     | mean/eff^* | rms/err^*  |     min     |     max     |
 | "#above threshold"                              |        96 |     777680 |     8100.8 |     7821.8 |      0.0000 |      32335. |
 | "#chi2"                                         |    323927 |1.504942e+09 |     4645.9 |     2885.4 |  0.00077862 |      10000. |
 | "#good tracks"                                  |        96 |       8729 |     90.927 |     55.323 |      0.0000 |      220.00 |
 | "#links in table"                               |        96 |     323927 |     3374.2 |     2904.5 |      0.0000 |      12185. |
 | "#total calos"                                  |        96 |       9591 |     99.906 |     46.926 |      0.0000 |      210.00 |
BremChi22IDFuture                   SUCCESS Number of counters : 2
 |    Counter                                      |     #     |    sum     | mean/eff^* | rms/err^*  |     min     |     max     |
 | "#links in table"                               |        96 |      13253 |     138.05 |     80.451 |      0.0000 |      319.00 |
 | "#total tracks"                                 |        96 |      25242 |     262.94 |     144.68 |      0.0000 |      640.00 |
BremPIDeAlgFuture                   SUCCESS Number of counters : 1
 |    Counter                                      |     #     |    sum     | mean/eff^* | rms/err^*  |     min     |     max     |
 | "/Event/BremChi22IDFuture/Output=>/Event/BremPID|        96 |      13253 |     138.05 |     80.451 |      0.0000 |      319.00 |
FutureClusChi22ID                   SUCCESS Number of counters : 2
 |    Counter                                      |     #     |    sum     | mean/eff^* | rms/err^*  |     min     |     max     |
 | "#links in table"                               |        96 |       9867 |     102.78 |     58.378 |      0.0000 |      247.00 |
 | "#total tracks"                                 |        96 |      25242 |     262.94 |     144.68 |      0.0000 |      640.00 |
FunctionalChargedProtoParticleMaker SUCCESS Number of counters : 1
 |    Counter                                      |     #     |    sum     | mean/eff^* | rms/err^*  |     min     |     max     |
 | "CreatedProtos"                                 |      7893 |
FutureNeutralProtoPAlg              SUCCESS Number of counters : 58
 |    Counter                                      |     #     |    sum     | mean/eff^* | rms/err^*  |     min     |     max     |
 | "CaloClusterCode for Photon"                    |      9591 |     127627 |     13.307 |     88.802 |     -98.000 |      98.000 |
 | "CaloClusterCode for PhotonFromMergedPi0"       |       652 |      55591 |     85.262 |     13.875 |      41.000 |      98.000 |
 | "CaloClusterCode for Pi0Merged"                 |       326 |      -3900 |    -11.963 |     89.649 |     -98.000 |      98.000 |
 | "CaloClusterFrac for Photon"                    |      7725 |   7768.845 |     1.0057 |   0.059282 |     0.62350 |      1.6224 |
 | "CaloClusterFrac for PhotonFromMergedPi0"       |       652 |   348.8923 |    0.53511 |    0.21843 |    0.015537 |     0.99220 |
 | "CaloClusterFrac for Pi0Merged"                 |       305 |   304.3041 |    0.99772 |   0.010800 |     0.89249 |      1.0065 |
 | "CaloNeutralE19 for Photon"                     |      9591 |   5754.629 |    0.60000 |    0.18878 |     0.15780 |      1.2922 |
 | "CaloNeutralE19 for PhotonFromMergedPi0"        |       652 |   479.2874 |    0.73510 |    0.91662 |     0.15370 |      22.475 |
 | "CaloNeutralE19 for Pi0Merged"                  |       326 |   167.3271 |    0.51327 |    0.16993 |     0.21034 |     0.94609 |
 | "CaloNeutralE49 for Photon"                     |      9591 |   8598.902 |    0.89656 |   0.096565 |     0.53274 |      1.3642 |
 | "CaloNeutralE49 for PhotonFromMergedPi0"        |       652 |   589.0326 |    0.90342 |   0.075577 |     0.61732 |      1.0000 |
 | "CaloNeutralE49 for Pi0Merged"                  |       326 |   281.5783 |    0.86374 |   0.092774 |     0.56315 |     0.99897 |
 | "CaloNeutralEcal for Photon"                    |      9591 |3.605067e+07 |     3758.8 |     5573.9 |      172.18 |  1.0590e+05 |
 | "CaloNeutralEcal for PhotonFromMergedPi0"       |       652 |    6456438 |     9902.5 |     10928. |      193.85 |      80521. |
 | "CaloNeutralEcal for Pi0Merged"                 |       326 |    6282536 |     19272. |     17637. |      5340.4 |  1.1381e+05 |
 | "CaloNeutralHcal2Ecal for Photon"               |      9591 |          0 |     0.0000 |     0.0000 |      0.0000 |      0.0000 |
 | "CaloNeutralHcal2Ecal for PhotonFromMergedPi0"  |       652 |          0 |     0.0000 |     0.0000 |      0.0000 |      0.0000 |
 | "CaloNeutralHcal2Ecal for Pi0Merged"            |       326 |          0 |     0.0000 |     0.0000 |      0.0000 |      0.0000 |
 | "CaloNeutralID for Photon"                      |      9591 |3.658068e+08 |     38141. |     3553.0 |      33153. |      44151. |
 | "CaloNeutralID for PhotonFromMergedPi0"         |       652 |2.428466e+07 |     37246. |     3326.1 |      33293. |      43862. |
 | "CaloNeutralID for Pi0Merged"                   |       326 |1.214253e+07 |     37247. |     3326.4 |      33294. |      43862. |
 | "CaloShapeAsym for Photon"                      |        30 |   1.863007 |   0.062100 |    0.29352 |    -0.51167 |     0.72000 |
 | "CaloShapeAsym for Pi0Merged"                   |       126 |    4.73313 |   0.037565 |    0.32978 |    -0.66253 |     0.73265 |
 | "CaloShapeE1 for Photon"                        |        30 |    18.0362 |    0.60121 |    0.16946 |     0.28013 |     0.90733 |
 | "CaloShapeE1 for Pi0Merged"                     |       126 |   62.60166 |    0.49684 |    0.16640 |     0.24477 |     0.94609 |
 | "CaloShapeE2 for Photon"                        |        30 |   23.93993 |    0.79800 |    0.12244 |     0.46600 |     0.94950 |
 | "CaloShapeE2 for Pi0Merged"                     |       126 |   90.28881 |    0.71658 |    0.13709 |     0.43722 |      1.0160 |
 | "CaloShapeFr2r4 for Photon"                     |        30 |   22.74175 |    0.75806 |   0.086834 |     0.60787 |     0.93178 |
 | "CaloShapeFr2r4 for Pi0Merged"                  |       126 |   90.63442 |    0.71932 |   0.094169 |     0.44826 |     0.93178 |
 | "CaloShapeKappa for Photon"                     |        30 |   10.35611 |    0.34520 |    0.15580 |    0.061295 |     0.72116 |
 | "CaloShapeKappa for Pi0Merged"                  |       126 |   48.19455 |    0.38250 |    0.16861 |      0.0000 |     0.75920 |
 | "CaloTrMatch for Photon"                        |      9101 |    1354552 |     148.84 |     195.16 |      4.0051 |      998.54 |
 | "CaloTrMatch for PhotonFromMergedPi0"           |       646 |   16585.62 |     25.674 |     94.817 |   0.0010952 |      940.46 |
 | "CaloTrMatch for Pi0Merged"                     |       323 |   8292.812 |     25.674 |     94.817 |   0.0010952 |      940.46 |
 | "ClusterAsX for Photon"                         |      9583 |    19.5072 |  0.0020356 |    0.20061 |    -0.67370 |     0.71369 |
 | "ClusterAsX for PhotonFromMergedPi0"            |       652 |  -2.838967 | -0.0043542 |    0.24000 |    -0.80414 |     0.93316 |
 | "ClusterAsY for Photon"                         |      9582 |   59.72021 |  0.0062325 |    0.19758 |    -0.72460 |     0.67735 |
 | "ClusterAsY for PhotonFromMergedPi0"            |       652 |   9.183981 |   0.014086 |    0.23322 |    -0.88545 |     0.84093 |
 | "IsNotE for Photon"                             |      9591 |   4914.815 |    0.51244 |    0.22660 |     -1.0000 |     0.94675 |
 | "IsNotE for PhotonFromMergedPi0"                |       652 |   291.1658 |    0.44657 |    0.18523 |     -1.0000 |     0.91600 |
 | "IsNotE for Pi0Merged"                          |       326 |   126.8779 |    0.38920 |    0.12875 |     0.16220 |     0.88873 |
 | "IsNotH for Photon"                             |      9591 |   5648.694 |    0.58896 |    0.31982 |     -1.0000 |     0.99853 |
 | "IsNotH for PhotonFromMergedPi0"                |       652 |   413.2522 |    0.63382 |    0.32155 |     -1.0000 |     0.99938 |
 | "IsNotH for Pi0Merged"                          |       326 |   122.1886 |    0.37481 |    0.29725 |    0.037118 |     0.99297 |
 | "IsPhoton for Photon"                           |      9591 |   9578.896 |    0.99874 |   0.028587 |    0.033148 |      1.0000 |
 | "IsPhoton for Pi0Merged"                        |       326 |   249.1358 |    0.76422 |    0.35342 |   0.0099612 |      1.0000 |
 | "IsPhotonXGB for Photon"                        |      9591 |    9578.88 |    0.99874 |   0.030578 |  9.0229e-05 |      1.0000 |
 | "IsPhotonXGB for Pi0Merged"                     |       326 |   271.5202 |    0.83288 |    0.29682 |  5.6350e-05 |      1.0000 |
 | "Neutral Protos"                                |        96 |      10569 |     110.09 |     55.707 |      0.0000 |      249.00 |
 | "Neutral Protos from MergedPi0s"                |        96 |        326 |     3.3958 |     3.9197 |      0.0000 |      18.000 |
 | "Neutral Protos from Photons"                   |        96 |       9591 |     99.906 |     46.926 |      0.0000 |      210.00 |
 | "Neutral Protos from SplitPhotons"              |        96 |        652 |     6.7917 |     7.8394 |      0.0000 |      36.000 |
 | "PhotonID for Photon"                           |      9591 |      -9591 |    -1.0000 |     0.0000 |     -1.0000 |     -1.0000 |
 | "PhotonID for PhotonFromMergedPi0"              |       652 |       -652 |    -1.0000 |     0.0000 |     -1.0000 |     -1.0000 |
 | "PhotonID for Pi0Merged"                        |       326 |       -326 |    -1.0000 |     0.0000 |     -1.0000 |     -1.0000 |
 | "ShowerShape for Photon"                        |      9591 |4.446395e+07 |     4636.0 |     4669.5 |      253.69 |      69098. |
 | "ShowerShape for PhotonFromMergedPi0"           |       652 |    2916894 |     4473.8 |     3614.7 |      263.25 |      17111. |
 | "ShowerShape for Pi0Merged"                     |       326 |    2917104 |     8948.2 |     7006.0 |      416.68 |      36918. |
ToolSvc.TrackFunctorFactory         SUCCESS Number of counters : 1
 |    Counter                                      |     #     |    sum     | mean/eff^* | rms/err^*  |     min     |     max     |
 | "# loaded from PYTHON"                          |         1 |          1 |     1.0000 |     0.0000 |      1.0000 |      1.0000 |
CaloFutureMergedPi0.EcalCovariance  SUCCESS Number of counters : 1
 |    Counter                                      |     #     |    sum     | mean/eff^* | rms/err^*  |     min     |     max     |
 | "parameter updated"                             |         2 |
CaloFutureMergedPi0.SplitPhotonS... SUCCESS Number of counters : 10
 |    Counter                                      |     #     |    sum     | mean/eff^* | rms/err^*  |     min     |     max     |
 | "<delta> Inner"                                 |      5313 |     431634 |     81.241 |
 | "<delta> Middle"                                |      4158 |     396274 |     95.304 |
 | "<delta> Outer"                                 |     15631 |    1701873 |     108.88 |
 | "<gamma> Inner"                                 |      5313 |   78514.49 |     14.778 |
 | "<gamma> Middle"                                |      4158 |   60019.99 |     14.435 |
 | "<gamma> Outer"                                 |     15631 |   228437.5 |     14.614 |
 | "Delta(Z)"                                      |     25102 |    3137007 |     124.97 |     10.405 |      70.909 |      159.39 |
 | "Delta(Z) Inner"                                |      5313 |   656132.1 |     123.50 |     9.9052 |      70.909 |      147.68 |
 | "Delta(Z) Middle"                               |      4158 |   510937.6 |     122.88 |     10.993 |      84.983 |      152.43 |
 | "Delta(Z) Outer"                                |     15631 |    1969937 |     126.03 |     10.264 |      81.757 |      159.39 |
CaloFutureMergedPi0.SplitPhotonS... SUCCESS Number of counters : 2
 |    Counter                                      |     #     |    sum     | mean/eff^* | rms/err^*  |     min     |     max     |
 | "Delta(X)"                                      |     25102 |  -19366.37 |   -0.77151 |     14.129 |     -41.597 |      22.930 |
 | "Delta(Y)"                                      |     25102 |  -13635.16 |   -0.54319 |     13.922 |     -30.034 |      22.930 |
FutureChargedProtoParticleAddEca... SUCCESS Number of counters : 1
 |    Counter                                      |     #     |    sum     | mean/eff^* | rms/err^*  |     min     |     max     |
 | "Number of field calls"                         |    126870 |
FutureChargedProtoParticleAddEca... SUCCESS Number of counters : 1
 |    Counter                                      |     #     |    sum     | mean/eff^* | rms/err^*  |     min     |     max     |
 | "Number of field calls"                         |    111654 |
ClassifyPhotonElectronAlg.CaloFu... SUCCESS Number of counters : 1
 |    Counter                                      |     #     |    sum     | mean/eff^* | rms/err^*  |     min     |     max     |
 | "Number of field calls"                         |     46176 |
CaloFutureMergedPi0.CaloFutureLC... SUCCESS Number of counters : 10
 |    Counter                                      |     #     |    sum     | mean/eff^* | rms/err^*  |     min     |     max     |
 | "<delta> Inner"                                 |       138 |   11211.27 |     81.241 |
 | "<delta> Middle"                                |       108 |   10292.83 |     95.304 |
 | "<delta> Outer"                                 |       406 |   44204.48 |     108.88 |
 | "<gamma> Inner"                                 |       138 |   2039.337 |     14.778 |
 | "<gamma> Middle"                                |       108 |   1558.961 |     14.435 |
 | "<gamma> Outer"                                 |       406 |   5933.443 |     14.614 |
 | "Delta(Z)"                                      |       652 |    82331.6 |     126.28 |     10.205 |      71.196 |      158.91 |
 | "Delta(Z) Inner"                                |       138 |   17202.94 |     124.66 |     10.449 |      71.196 |      146.14 |
 | "Delta(Z) Middle"                               |       108 |    13470.2 |     124.72 |     10.298 |      86.592 |      151.42 |
 | "Delta(Z) Outer"                                |       406 |   51658.46 |     127.24 |     9.9732 |      83.056 |      158.91 |
CaloFutureMergedPi0.CaloFutureSC... SUCCESS Number of counters : 2
 |    Counter                                      |     #     |    sum     | mean/eff^* | rms/err^*  |     min     |     max     |
 | "Delta(X)"                                      |       652 |  -556.2064 |   -0.85308 |     13.946 |     -41.593 |      22.930 |
 | "Delta(Y)"                                      |       652 |  -348.4747 |   -0.53447 |     13.814 |     -29.478 |      22.926 |
CaloFutureMergedPi0.CaloFutureEC... SUCCESS Number of counters : 8
 |    Counter                                      |     #     |    sum     | mean/eff^* | rms/err^*  |     min     |     max     |
 | "<alpha> Inner"                                 |       138 |   137.3408 |    0.99522 |   0.022397 |     0.96664 |      1.0733 |
 | "<alpha> Middle"                                |       108 |   108.5132 |     1.0048 |   0.026557 |     0.97766 |      1.1163 |
 | "<alpha> Outer"                                 |       406 |   406.0053 |     1.0000 |   0.021337 |     0.97393 |      1.1018 |
 | "Corrected energy"                              |       652 |    6436594 |     9872.1 |     10796. |      195.60 |      81343. |
 | "Delta(E)"                                      |       652 |  -31739.31 |    -48.680 |     344.13 |     -2624.1 |      2374.0 |
 | "Pileup offset"                                 |       652 |          0 |     0.0000 |     0.0000 |      0.0000 |      0.0000 |
 | "Pileup scale"                                  |        96 |          0 |     0.0000 |     0.0000 |      0.0000 |      0.0000 |
 | "Pileup subtracted ratio"                       |       652 |        652 |     1.0000 |     0.0000 |      1.0000 |      1.0000 |
CaloFutureClusterCovarianceAlg.E... SUCCESS Number of counters : 1
 |    Counter                                      |     #     |    sum     | mean/eff^* | rms/err^*  |     min     |     max     |
 | "parameter updated"                             |         2 |
CaloFutureShowerOverlap.PhotonSh... SUCCESS Number of counters : 10
 |    Counter                                      |     #     |    sum     | mean/eff^* | rms/err^*  |     min     |     max     |
 | "<delta> Inner"                                 |     10876 |   883578.3 |     81.241 |
 | "<delta> Middle"                                |      7538 |   718401.6 |     95.304 |
 | "<delta> Outer"                                 |     15142 |    1648631 |     108.88 |
 | "<gamma> Inner"                                 |     10876 |   160723.4 |     14.778 |
 | "<gamma> Middle"                                |      7538 |   108809.7 |     14.435 |
 | "<gamma> Outer"                                 |     15142 |   221291.1 |     14.614 |
 | "Delta(Z)"                                      |     33556 |    3808431 |     113.49 |     11.979 |      75.984 |      172.84 |
 | "Delta(Z) Inner"                                |     10876 |    1223676 |     112.51 |     11.028 |      79.700 |      151.12 |
 | "Delta(Z) Middle"                               |      7538 |   845690.9 |     112.19 |     11.249 |      81.007 |      154.19 |
 | "Delta(Z) Outer"                                |     15142 |    1739064 |     114.85 |     12.817 |      75.984 |      172.84 |
CaloFutureShowerOverlap.PhotonSh... SUCCESS Number of counters : 2
 |    Counter                                      |     #     |    sum     | mean/eff^* | rms/err^*  |     min     |     max     |
 | "Delta(X)"                                      |     33556 |   -4691.28 |   -0.13980 |     12.727 |     -23.059 |      24.127 |
 | "Delta(Y)"                                      |     33556 |   2629.252 |   0.078354 |     12.667 |     -26.158 |      22.930 |
RichTrackSegmentsUpstream.TrackS... SUCCESS Number of counters : 1
 |    Counter                                      |     #     |    sum     | mean/eff^* | rms/err^*  |     min     |     max     |
 | "Number of field calls"                         |      9244 |
RichTrackSegmentsLong.TrackSTEPE... SUCCESS Number of counters : 1
 |    Counter                                      |     #     |    sum     | mean/eff^* | rms/err^*  |     min     |     max     |
 | "Number of field calls"                         |    295057 |
RichTrackSegmentsDownstream.Trac... SUCCESS Number of counters : 1
 |    Counter                                      |     #     |    sum     | mean/eff^* | rms/err^*  |     min     |     max     |
 | "Number of field calls"                         |     71427 |
TrackBestTrackCreator.TrackMaste... SUCCESS Number of counters : 1
 |    Counter                                      |     #     |    sum     | mean/eff^* | rms/err^*  |     min     |     max     |
 | "Number of field calls"                         |   4643997 |
TrackBestTrackCreator.TrackMaste... SUCCESS Number of counters : 1
 |    Counter                                      |     #     |    sum     | mean/eff^* | rms/err^*  |     min     |     max     |
 | "Number of field calls"                         |    603706 |
PrForwardTrackingVelo.PrAddUTHit... SUCCESS Number of counters : 2
 |    Counter                                      |     #     |    sum     | mean/eff^* | rms/err^*  |     min     |     max     |
 | "#UT hits added"                                |      5280 |      21050 |     3.9867 |
 | "#tracks with hits added"                       |      5280 |
PrMatchNN.PrAddUTHitsTool           SUCCESS Number of counters : 2
 |    Counter                                      |     #     |    sum     | mean/eff^* | rms/err^*  |     min     |     max     |
 | "#UT hits added"                                |      5286 |      21107 |     3.9930 |
 | "#tracks with hits added"                       |      5286 |
ToolSvc.TrackRungeKuttaExtrapolator SUCCESS Number of counters : 1
 |    Counter                                      |     #     |    sum     | mean/eff^* | rms/err^*  |     min     |     max     |
 | "Number of field calls"                         |      6182 |
ClassifyPhotonElectronAlg.CaloFu... SUCCESS Number of counters : 10
 |    Counter                                      |     #     |    sum     | mean/eff^* | rms/err^*  |     min     |     max     |
 | "<delta> Inner"                                 |      5203 |   422697.5 |     81.241 |
 | "<delta> Middle"                                |      4640 |   442210.6 |     95.304 |
 | "<delta> Outer"                                 |      7444 |   810488.1 |     108.88 |
 | "<gamma> Inner"                                 |      5203 |   76888.93 |     14.778 |
 | "<gamma> Middle"                                |      4640 |   66977.58 |     14.435 |
 | "<gamma> Outer"                                 |      7444 |   108789.5 |     14.614 |
 | "Delta(Z)"                                      |     17287 |    1925804 |     111.40 |     11.782 |      79.061 |      173.00 |
 | "Delta(Z) Inner"                                |      5203 |   573617.7 |     110.25 |     11.424 |      79.061 |      151.50 |
 | "Delta(Z) Middle"                               |      4640 |   510818.6 |     110.09 |     11.176 |      80.321 |      153.95 |
 | "Delta(Z) Outer"                                |      7444 |   841367.4 |     113.03 |     12.193 |      83.657 |      173.00 |
ClassifyPhotonElectronAlg.CaloFu... SUCCESS Number of counters : 2
 |    Counter                                      |     #     |    sum     | mean/eff^* | rms/err^*  |     min     |     max     |
 | "Delta(X)"                                      |     17287 |  -1496.618 |  -0.086575 |     12.321 |     -23.059 |      22.930 |
 | "Delta(Y)"                                      |     17287 |   873.2251 |   0.050513 |     12.292 |     -23.059 |      22.930 |
ClassifyPhotonElectronAlg.CaloFu... SUCCESS Number of counters : 8
 |    Counter                                      |     #     |    sum     | mean/eff^* | rms/err^*  |     min     |     max     |
 | "<alpha> Inner"                                 |      5203 |   5175.167 |    0.99465 |   0.019307 |     0.96447 |      1.1151 |
 | "<alpha> Middle"                                |      4640 |   4665.447 |     1.0055 |   0.018650 |     0.97671 |      1.1113 |
 | "<alpha> Outer"                                 |      7444 |   7428.703 |    0.99795 |   0.015062 |     0.97356 |      1.0515 |
 | "Corrected energy"                              |     17287 |8.651001e+07 |     5004.3 |     6458.8 |      254.30 |  1.1680e+05 |
 | "Delta(E)"                                      |     17287 |    2274071 |     131.55 |     182.01 |     -2543.8 |      3316.7 |
 | "Pileup offset"                                 |     17287 |          0 |     0.0000 |     0.0000 |      0.0000 |      0.0000 |
 | "Pileup scale"                                  |       192 |          0 |     0.0000 |     0.0000 |      0.0000 |      0.0000 |
 | "Pileup subtracted ratio"                       |     17287 |      17287 |     1.0000 |     0.0000 |      1.0000 |      1.0000 |
